// Jest Snapshot v1, https://goo.gl/fbAQLP

exports[`Timeline Timeline has time from 8 to 23 and hasn't list 1`] = `
<div
  className="main-timeline"
  onScroll={[Function]}
>
  <div
    className="main-inner"
  >
    <div
      className="time-header"
    >
      <div
        className="is-desktop block-left-date"
      />
      <div
        className="time-body-main-clocks"
      >
        <div
          className="block-left is-devices"
        />
        <div
          className="first-time-zone"
        />
        <div
          className="middle-time-zone-inner"
        >
          <div
            className="time-zone-clock"
            key="8"
            style={
              Object {
                "width": "calc(100%/15 + 1px)",
              }
            }
          >
            <span
              className="clock-time-item "
            >
              8:00
            </span>
          </div>
          <div
            className="time-zone-clock"
            key="9"
            style={
              Object {
                "width": "calc(100%/15 + 1px)",
              }
            }
          >
            <span
              className="clock-time-item "
            >
              9
            </span>
          </div>
          <div
            className="time-zone-clock"
            key="10"
            style={
              Object {
                "width": "calc(100%/15 + 1px)",
              }
            }
          >
            <span
              className="clock-time-item "
            >
              10
            </span>
          </div>
          <div
            className="time-zone-clock"
            key="11"
            style={
              Object {
                "width": "calc(100%/15 + 1px)",
              }
            }
          >
            <span
              className="clock-time-item "
            >
              11
            </span>
          </div>
          <div
            className="time-zone-clock"
            key="12"
            style={
              Object {
                "width": "calc(100%/15 + 1px)",
              }
            }
          >
            <span
              className="clock-time-item "
            >
              12
            </span>
          </div>
          <div
            className="time-zone-clock"
            key="13"
            style={
              Object {
                "width": "calc(100%/15 + 1px)",
              }
            }
          >
            <span
              className="clock-time-item "
            >
              13
            </span>
          </div>
          <div
            className="time-zone-clock"
            key="14"
            style={
              Object {
                "width": "calc(100%/15 + 1px)",
              }
            }
          >
            <span
              className="clock-time-item "
            >
              14
            </span>
          </div>
          <div
            className="time-zone-clock"
            key="15"
            style={
              Object {
                "width": "calc(100%/15 + 1px)",
              }
            }
          >
            <span
              className="clock-time-item "
            >
              15
            </span>
          </div>
          <div
            className="time-zone-clock"
            key="16"
            style={
              Object {
                "width": "calc(100%/15 + 1px)",
              }
            }
          >
            <span
              className="clock-time-item "
            >
              16
            </span>
          </div>
          <div
            className="time-zone-clock"
            key="17"
            style={
              Object {
                "width": "calc(100%/15 + 1px)",
              }
            }
          >
            <span
              className="clock-time-item "
            >
              17
            </span>
          </div>
          <div
            className="time-zone-clock"
            key="18"
            style={
              Object {
                "width": "calc(100%/15 + 1px)",
              }
            }
          >
            <span
              className="clock-time-item "
            >
              18
            </span>
          </div>
          <div
            className="time-zone-clock"
            key="19"
            style={
              Object {
                "width": "calc(100%/15 + 1px)",
              }
            }
          >
            <span
              className="clock-time-item "
            >
              19
            </span>
          </div>
          <div
            className="time-zone-clock"
            key="20"
            style={
              Object {
                "width": "calc(100%/15 + 1px)",
              }
            }
          >
            <span
              className="clock-time-item "
            >
              20
            </span>
          </div>
          <div
            className="time-zone-clock"
            key="21"
            style={
              Object {
                "width": "calc(100%/15 + 1px)",
              }
            }
          >
            <span
              className="clock-time-item "
            >
              21
            </span>
          </div>
          <div
            className="time-zone-clock"
            key="22"
            style={
              Object {
                "width": "calc(100%/15 + 1px)",
              }
            }
          >
            <span
              className="clock-time-item "
            >
              22
            </span>
          </div>
        </div>
        <div
          className="last-time-zone"
        >
          <div
            className="time-zone-clock"
          >
            <span
              className="clock-time-item "
            >
              23
            </span>
          </div>
        </div>
      </div>
    </div>
    <div
      className="time-body"
    >
      <div
        className="meeting-list"
      >
        <div
          className="meeting-list-inner"
        >
          <ul
            className="meeting-rooms-list"
          />
        </div>
      </div>
      <div
        className="block-left-design"
      />
      <div
        className="time-body-main time-zone-bg-main"
      >
        <div
          className="time-body-columns"
        >
          <div
            className="first-time-zone time-zone-border"
          />
          <div
            className="middle-time-zone"
          >
            <div
              className="time-zone-border"
              key="8"
              style={
                Object {
                  "width": "calc(100%/15 + 1px)",
                }
              }
            />
            <div
              className="time-zone-border"
              key="9"
              style={
                Object {
                  "width": "calc(100%/15 + 1px)",
                }
              }
            />
            <div
              className="time-zone-border"
              key="10"
              style={
                Object {
                  "width": "calc(100%/15 + 1px)",
                }
              }
            />
            <div
              className="time-zone-border"
              key="11"
              style={
                Object {
                  "width": "calc(100%/15 + 1px)",
                }
              }
            />
            <div
              className="time-zone-border"
              key="12"
              style={
                Object {
                  "width": "calc(100%/15 + 1px)",
                }
              }
            />
            <div
              className="time-zone-border"
              key="13"
              style={
                Object {
                  "width": "calc(100%/15 + 1px)",
                }
              }
            />
            <div
              className="time-zone-border"
              key="14"
              style={
                Object {
                  "width": "calc(100%/15 + 1px)",
                }
              }
            />
            <div
              className="time-zone-border"
              key="15"
              style={
                Object {
                  "width": "calc(100%/15 + 1px)",
                }
              }
            />
            <div
              className="time-zone-border"
              key="16"
              style={
                Object {
                  "width": "calc(100%/15 + 1px)",
                }
              }
            />
            <div
              className="time-zone-border"
              key="17"
              style={
                Object {
                  "width": "calc(100%/15 + 1px)",
                }
              }
            />
            <div
              className="time-zone-border"
              key="18"
              style={
                Object {
                  "width": "calc(100%/15 + 1px)",
                }
              }
            />
            <div
              className="time-zone-border"
              key="19"
              style={
                Object {
                  "width": "calc(100%/15 + 1px)",
                }
              }
            />
            <div
              className="time-zone-border"
              key="20"
              style={
                Object {
                  "width": "calc(100%/15 + 1px)",
                }
              }
            />
            <div
              className="time-zone-border"
              key="21"
              style={
                Object {
                  "width": "calc(100%/15 + 1px)",
                }
              }
            />
            <div
              className="time-zone-border"
              key="22"
              style={
                Object {
                  "width": "calc(100%/15 + 1px)",
                }
              }
            />
          </div>
          <div
            className="last-time-zone"
          />
        </div>
      </div>
    </div>
  </div>
</div>
`;

exports[`Timeline Timeline has time from 8 to 23 and one header and one main item list 1`] = `
<div
  className="main-timeline"
  onScroll={[Function]}
>
  <div
    className="main-inner"
  >
    <div
      className="time-header"
    >
      <div
        className="is-desktop block-left-date"
      />
      <div
        className="time-body-main-clocks"
      >
        <div
          className="block-left is-devices"
        />
        <div
          className="first-time-zone"
        />
        <div
          className="middle-time-zone-inner"
        >
          <div
            className="time-zone-clock"
            key="8"
            style={
              Object {
                "width": "calc(100%/15 + 1px)",
              }
            }
          >
            <span
              className="clock-time-item "
            >
              8:00
            </span>
          </div>
          <div
            className="time-zone-clock"
            key="9"
            style={
              Object {
                "width": "calc(100%/15 + 1px)",
              }
            }
          >
            <span
              className="clock-time-item "
            >
              9
            </span>
          </div>
          <div
            className="time-zone-clock"
            key="10"
            style={
              Object {
                "width": "calc(100%/15 + 1px)",
              }
            }
          >
            <span
              className="clock-time-item "
            >
              10
            </span>
          </div>
          <div
            className="time-zone-clock"
            key="11"
            style={
              Object {
                "width": "calc(100%/15 + 1px)",
              }
            }
          >
            <span
              className="clock-time-item "
            >
              11
            </span>
          </div>
          <div
            className="time-zone-clock"
            key="12"
            style={
              Object {
                "width": "calc(100%/15 + 1px)",
              }
            }
          >
            <span
              className="clock-time-item "
            >
              12
            </span>
          </div>
          <div
            className="time-zone-clock"
            key="13"
            style={
              Object {
                "width": "calc(100%/15 + 1px)",
              }
            }
          >
            <span
              className="clock-time-item "
            >
              13
            </span>
          </div>
          <div
            className="time-zone-clock"
            key="14"
            style={
              Object {
                "width": "calc(100%/15 + 1px)",
              }
            }
          >
            <span
              className="clock-time-item "
            >
              14
            </span>
          </div>
          <div
            className="time-zone-clock"
            key="15"
            style={
              Object {
                "width": "calc(100%/15 + 1px)",
              }
            }
          >
            <span
              className="clock-time-item "
            >
              15
            </span>
          </div>
          <div
            className="time-zone-clock"
            key="16"
            style={
              Object {
                "width": "calc(100%/15 + 1px)",
              }
            }
          >
            <span
              className="clock-time-item "
            >
              16
            </span>
          </div>
          <div
            className="time-zone-clock"
            key="17"
            style={
              Object {
                "width": "calc(100%/15 + 1px)",
              }
            }
          >
            <span
              className="clock-time-item "
            >
              17
            </span>
          </div>
          <div
            className="time-zone-clock"
            key="18"
            style={
              Object {
                "width": "calc(100%/15 + 1px)",
              }
            }
          >
            <span
              className="clock-time-item "
            >
              18
            </span>
          </div>
          <div
            className="time-zone-clock"
            key="19"
            style={
              Object {
                "width": "calc(100%/15 + 1px)",
              }
            }
          >
            <span
              className="clock-time-item "
            >
              19
            </span>
          </div>
          <div
            className="time-zone-clock"
            key="20"
            style={
              Object {
                "width": "calc(100%/15 + 1px)",
              }
            }
          >
            <span
              className="clock-time-item "
            >
              20
            </span>
          </div>
          <div
            className="time-zone-clock"
            key="21"
            style={
              Object {
                "width": "calc(100%/15 + 1px)",
              }
            }
          >
            <span
              className="clock-time-item "
            >
              21
            </span>
          </div>
          <div
            className="time-zone-clock"
            key="22"
            style={
              Object {
                "width": "calc(100%/15 + 1px)",
              }
            }
          >
            <span
              className="clock-time-item "
            >
              22
            </span>
          </div>
        </div>
        <div
          className="last-time-zone"
        >
          <div
            className="time-zone-clock"
          >
            <span
              className="clock-time-item "
            >
              23
            </span>
          </div>
        </div>
      </div>
    </div>
    <div
      className="time-body"
    >
      <div
        className="meeting-list"
      >
        <div
          className="meeting-list-inner"
        >
          <ul
            className="meeting-rooms-list"
          />
        </div>
      </div>
      <div
        className="block-left-design"
      />
      <div
        className="time-body-main time-zone-bg-main"
      >
        <div
          className="time-body-columns"
        >
          <div
            className="first-time-zone time-zone-border"
          />
          <div
            className="middle-time-zone"
          >
            <div
              className="time-zone-border"
              key="8"
              style={
                Object {
                  "width": "calc(100%/15 + 1px)",
                }
              }
            />
            <div
              className="time-zone-border"
              key="9"
              style={
                Object {
                  "width": "calc(100%/15 + 1px)",
                }
              }
            />
            <div
              className="time-zone-border"
              key="10"
              style={
                Object {
                  "width": "calc(100%/15 + 1px)",
                }
              }
            />
            <div
              className="time-zone-border"
              key="11"
              style={
                Object {
                  "width": "calc(100%/15 + 1px)",
                }
              }
            />
            <div
              className="time-zone-border"
              key="12"
              style={
                Object {
                  "width": "calc(100%/15 + 1px)",
                }
              }
            />
            <div
              className="time-zone-border"
              key="13"
              style={
                Object {
                  "width": "calc(100%/15 + 1px)",
                }
              }
            />
            <div
              className="time-zone-border"
              key="14"
              style={
                Object {
                  "width": "calc(100%/15 + 1px)",
                }
              }
            />
            <div
              className="time-zone-border"
              key="15"
              style={
                Object {
                  "width": "calc(100%/15 + 1px)",
                }
              }
            />
            <div
              className="time-zone-border"
              key="16"
              style={
                Object {
                  "width": "calc(100%/15 + 1px)",
                }
              }
            />
            <div
              className="time-zone-border"
              key="17"
              style={
                Object {
                  "width": "calc(100%/15 + 1px)",
                }
              }
            />
            <div
              className="time-zone-border"
              key="18"
              style={
                Object {
                  "width": "calc(100%/15 + 1px)",
                }
              }
            />
            <div
              className="time-zone-border"
              key="19"
              style={
                Object {
                  "width": "calc(100%/15 + 1px)",
                }
              }
            />
            <div
              className="time-zone-border"
              key="20"
              style={
                Object {
                  "width": "calc(100%/15 + 1px)",
                }
              }
            />
            <div
              className="time-zone-border"
              key="21"
              style={
                Object {
                  "width": "calc(100%/15 + 1px)",
                }
              }
            />
            <div
              className="time-zone-border"
              key="22"
              style={
                Object {
                  "width": "calc(100%/15 + 1px)",
                }
              }
            />
          </div>
          <div
            className="last-time-zone"
          />
        </div>
      </div>
    </div>
  </div>
</div>
`;
