// Jest Snapshot v1, https://goo.gl/fbAQLP

exports[`TooltipTimeInfo TooltipTimeInfo with input date 1`] = `
<ToolTip
  domNode={null}
  onCloseComponent={null}
>
  <div>
    <div
      className="btn-update"
    >
      <CircleButton
        classColor="update-button-color"
        onClick={null}
        type="update"
      />
    </div>
    <div
      className="tooltip-title-meeting"
    >
      <span>
        title
      </span>
    </div>
    <div
      className="tooltip-date-meeting"
    >
      <span>
        date
      </span>
      <span
        className="dot-before"
      >
        room
      </span>
    </div>
    <div
      className="tooltip-members-meeting"
    >
      <div
        className="tooltip-members-meeting-inner"
      >
        <img
          className="img-circle"
          src="/imgSrc"
        />
        <div
          className="tooltip-name-members"
        >
          person
        </div>
      </div>
      <div
        className="tooltip-other-members"
      >
        +
        countPersons
      </div>
    </div>
  </div>
</ToolTip>
`;
