<svg xmlns="http://www.w3.org/2000/svg" xmlns:xlink="http://www.w3.org/1999/xlink" version="1.1" enable-background="new 0 0 50.3 49" xml:space="preserve" width="50.29999923706055" height="49" style=""><rect id="backgroundrect" width="100%" height="100%" x="0" y="0" fill="none" stroke="none"/>

<g class="currentLayer" style=""><title>Layer 1</title><g id="_x37_dpTqK.tif" class="selected" fill="#ffffff" fill-opacity="1">
	<g id="svg_1" fill="#ffffff" fill-opacity="1">
		<path fill="#ffffff" d="M27.2,5.746938788890839 c0,1.4 0.1,2.8 0,4.1 c-0.1,1.2 -0.8,1.9 -2,1.9 c-1.3,0 -2,-0.8 -2,-2 c-0.1,-2.9 -0.1,-5.8 0.1,-8.6 c0,-0.6000000000000003 1.1,-1.5 1.8,-1.7000000000000002 c1.2,-0.30000000000000016 2,0.5 2.1,1.7000000000000002 C27.3,2.7469387888908385 27.2,4.3469387888908395 27.2,5.746938788890839 C27.2,5.746938788890839 27.2,5.746938788890839 27.2,5.746938788890839 z" id="svg_2" fill-opacity="1"/>
		<path fill="#ffffff" d="M6.9,25.84693878889084 c-1.4,0 -2.8,0.1 -4.1,0 c-1.2,-0.1 -1.9,-0.8 -1.9,-2 c0,-1.3 0.8,-2 2,-2 c2.9,-0.1 5.8,-0.1 8.6,0.1 c0.6000000000000003,0 1.5,1.1 1.7000000000000002,1.8 c0.30000000000000016,1.2 -0.5,2 -1.7000000000000002,2.1 C9.9,25.94693878889084 8.4,25.84693878889084 6.9,25.84693878889084 C6.9,25.84693878889084 6.9,25.84693878889084 6.9,25.84693878889084 z" id="svg_3" fill-opacity="1"/>
		<path fill="#ffffff" d="M43.3,25.94693878889084 c-1.3,0 -2.6,0 -3.8,0 c-1.3,-0.1 -2.3,-0.7000000000000003 -2.2,-2.1 c0,-1.3 0.9,-1.9 2,-1.9 c2.8,-0.1 5.6,-0.1 8.4,0 c1.2,0 1.9,0.8 1.9,2.1 c0,1.3 -0.9,1.9 -2,1.9 C46.1,25.94693878889084 44.7,25.94693878889084 43.3,25.94693878889084 C43.3,25.94693878889084 43.3,25.94693878889084 43.3,25.94693878889084 z" id="svg_4" fill-opacity="1"/>
		<path fill="#ffffff" d="M27.2,42.04693878889084 c0,1.4 0.1,2.8 0,4.2 c-0.1,1.2 -0.8,1.9 -2,1.9 c-1.6,0 -2,-1.1 -2,-1.9 c0,-2.8 -0.2,-5.6 -0.1,-8.4 c0,-1.2 0.8,-1.9 2,-1.9 c1.4,0 1.8,1.2 2,1.9 C27.5,39.24693878889084 27.2,40.646938788890836 27.2,42.04693878889084 z" id="svg_5" fill-opacity="1"/>
		<path fill="#ffffff" d="M20.6,11.446938788890838 c0.2,1.2 -1.1,1.7000000000000002 -1.8,2.1 c-0.4,0.2 -1.5,0 -1.8,-0.4 c-1.7000000000000002,-2.6 -3.3,-5.3 -4.8,-8 c-0.2,-0.4 -0.30000000000000016,-1.4 0.8,-2.1 c0.4,-0.30000000000000016 1.6,-0.4 1.8,-0.2 C16.8,5.6469387888908384 18.7,8.546938788890838 20.6,11.446938788890838 z" id="svg_6" fill-opacity="1"/>
		<path fill="#ffffff" d="M32.3,13.746938788890839 c-1.3,0 -2.5,-1.6 -1.9,-2.8 c1.4,-2.7 3,-5.2 4.7,-7.7 c0.30000000000000016,-0.4 1.6,-0.6000000000000003 2.1,-0.4 c1.1,0.6000000000000003 1.3,1.5 1.1,1.9 c-1.6,2.9 -3.4,5.8 -5.1,8.6 C33,13.64693878889084 32.5,13.64693878889084 32.3,13.746938788890839 z" id="svg_7" fill-opacity="1"/>
		<path fill="#ffffff" d="M15.1,16.546938788890838 c0,1.4 -1.5,2.7 -2.7,2.1 c-2.7,-1.4 -5.2,-3 -7.7,-4.7 c-0.4,-0.30000000000000016 -0.7000000000000003,-1.6 -0.4,-2 c0.7000000000000003,-1.2 1.8,-1.3 2.2,-1.1 c2.8,1.4 5.4,3.1 8.1,4.8 C14.8,15.846938788890839 15.1,16.34693878889084 15.1,16.546938788890838 z" id="svg_8" fill-opacity="1"/>
		<path fill="#ffffff" d="M37.7,19.246938788890837 c-1.2,-0.2 -1.9,-1.1 -2.1,-1.7000000000000002 c-0.2,-0.6000000000000003 0.1,-1.8 0.5,-2.1 c2.5,-1.7000000000000002 5.3,-2.9 7.8,-4.6 c1,-0.6000000000000003 1.6,-0.1 2.1,0.7000000000000003 c0.30000000000000016,0.4 0.5,1.5 0.30000000000000016,1.8 C45.7,14.14693878889084 40.60000000000001,17.34693878889084 37.7,19.246938788890837 z" id="svg_9" fill-opacity="1"/>
		<path fill="#ffffff" d="M15,31.246938788890837 c-0.30000000000000016,0.4 -0.7000000000000003,1.2 -1.3,1.6 c-2.2,1.4 -4.4,2.6 -6.6,3.9 c-1.2,0.7000000000000003 -2.2,0.5 -3,-0.7000000000000003 c-0.7000000000000003,-1.1 -0.2,-2.1 0.8,-2.7 c2.4,-1.5 4.8,-2.9 7.2,-4.2 C13.6,28.34693878889084 15.1,29.44693878889084 15,31.246938788890837 z" id="svg_10" fill-opacity="1"/>
		<path fill="#ffffff" d="M46.5,34.84693878889084 c-0.1,1.5 -1.6,2.6 -2.8,2 c-2.6,-1.4 -5.2,-2.9 -7.7,-4.6 c-0.5,-0.30000000000000016 -0.6000000000000003,-1.6 -0.5,-2.1 c0.30000000000000016,-1.2 1.7000000000000002,-1.4 2.2,-1.2 c2.8,1.5 5.6,3.2 8.3,4.9 C46.4,34.146938788890836 46.4,34.646938788890836 46.5,34.84693878889084 z" id="svg_11" fill-opacity="1"/>
		<path fill="#ffffff" d="M20.4,35.84693878889084 c-0.30000000000000016,0.8 -0.30000000000000016,1.1 -0.5,1.4 c-1.3,2.3 -2.6,4.7 -4,6.9 c-0.6000000000000003,0.9 -1.5,1.5 -2.7,0.8 c-1.2,-0.7000000000000003 -1.5,-1.8 -0.8,-3 c1.3,-2.3 2.6,-4.7 4.1,-6.9 c0.4,-0.6000000000000003 1.6,-1.1 2.3,-0.9 C19.4,34.34693878889084 20.4,35.146938788890836 20.4,35.84693878889084 z" id="svg_12" fill-opacity="1"/>
		<path fill="#ffffff" d="M38.7,42.84693878889084 c0.4,1.2 -0.9,1.7000000000000002 -1.5,2 c-0.6000000000000003,0.30000000000000016 -1.8,0.1 -2.1,-0.30000000000000016 c-1.7000000000000002,-2.6 -3.3,-5.3 -4.7,-8 c-0.2,-0.5 -0.1,-1.4 1,-2.2 c0.5,-0.4 1.5,-0.30000000000000016 1.8,0.1 C35,37.146938788890836 36.8,39.94693878889084 38.7,42.84693878889084 z" id="svg_13" fill-opacity="1"/>
	</g>
</g></g></svg>